Read metadata — read_metadata • kwb.fisbroker
…
wfs_meta <- dplyr::bind_rows(wfs_meta_list, .id = "id_wfs")

wfs_meta
#> # A tibble: 495 × 5
#>    id_wfs               title_id title_name                        param…¹ value
#>    <chr>                   <int> <chr>                             <chr>   <chr>
#>  1 s03_11_3LRP2018_2025        1 Luftreinhalteplan 2018-2025 - Sz… Kurzbe… "Wir…
#>  2 s03_11_3LRP2018_2025        1 Luftreinhalteplan 2018-2025 - Sz… Koordi… "EPS…
#>  3 s03_11_3LRP2018_2025        1 Luftreinhalteplan 2018-2025 - Sz… Ausdeh… "EPS…
#>  4 s03_11_3LRP2018_2025        1 Luftreinhalteplan 2018-2025 - Sz… Nutzun… "Für…
#>  5 s03_11_3LRP2018_2025        1 Luftreinhalteplan 2018-2025 - Sz… Zugrif… "Es …
#>  6 s03_11_3LRP2018_2025        2 Technische Angaben                Rechne… "htt…
#>  7 s03_11_3LRP2018_2025        2 Technische Angaben                Standa… "WFS"
#>  8 s03_11_3LRP2018_2025        2 Technische Angaben                Version "1.0…
#>  9 s03_11_3LRP2018_2025        2 Technische Angaben                Version "1.1…
#> 10 s03_11_3LRP2018_2025        2 Technische Angaben                Version "2.0…
#> # … with 485 more rows, and abbreviated variable name ¹​parameter
…
